…
## `summarise()` has grouped output by 'year'. You can override using the `.groups`
## argument.

## Source: local data table [36 x 6]
## Groups: year
## Call:   copy(`_DT1`)[, `:=`(pos_sales = fcase(sales_units > 0, sales_units, 
##     rep(TRUE, .N), 0)), by = .(year, SKU)][, .(total_revenue = sum(sales_units * 
##     item_price_eur), max_order_price = max(pos_sales * item_price_eur), 
##     avg_price_SKU = mean(item_price_eur), items_sold = .N), keyby = .(year, 
##     SKU)]
## 
##    year SKU     total_revenue max_order_price avg_price_SKU items_sold
##   <int> <chr>           <dbl>           <dbl>         <dbl>      <int>
## 1  2001 1003456      3506290.           100            27.5     121462
## 2  2001 109234        703168.           100            27.5      24402
## 3  2001 112348       1058960.           100.           27.5      36759
## 4  2001 112354        352691.           100.           27.4      12323
## 5  2001 123145        342890.            99.8          27.4      11903
## 6  2001 123154        350893.           100.           27.5      12228
## # … with 30 more rows
## # ℹ Use `print(n = ...)` to see more rows
## 
## # Use as.data.table()/as.data.frame()/as_tibble() to access results
…
