…
**Note: you don't need to know this, you can just skip ahead to the next heading.** The file that you imported is a SpatialPolygonsDataFrame, which is a special object. This is a s4 object *try google for the difference between s3 and s4 objects and more in R*. Whats important is that an S4 object has 'slots' that are accessible through the `@` symbol. try typing in the name of the object followed by a `$` and with the `@` sign. The object contains a slot for *data*, *polygons*, *plotorder*, *bbox* and *proj4strings.*

\*I had great help inspecting this [stackoverflow question](https://gis.stackexchange.com/questions/87789/spatialpointsdataframe-properties-and-operators-in-r). The point of this S4 object is that you almost never have to manipulate the deeper structure of the file. there are functions that do those steps for you.

But I thought it would be interesting to understand this structure

First we look at **data**:

``` r
library(tibble) # better printing
library(dplyr)  # obviously
NLD@data %>% as_tibble()
```

    ## # A tibble: 491 × 15
    ##    OBJECTID  ID_0   ISO      NAME_0  ID_1  NAME_1  ID_2         NAME_2
    ##       <int> <int> <chr>       <chr> <int>   <chr> <int>          <chr>
    ## 1         1   158   NLD Netherlands     1 Drenthe     1    Aa en Hunze
    ## 2         2   158   NLD Netherlands     1 Drenthe     2          Assen
    ## 3         3   158   NLD Netherlands     1 Drenthe     3  Borger-Odoorn
    ## 4         4   158   NLD Netherlands     1 Drenthe     4      Coevorden
    ## 5         5   158   NLD Netherlands     1 Drenthe     5      De Wolden
    ## 6         6   158   NLD Netherlands     1 Drenthe     6          Emmen
    ## 7         7   158   NLD Netherlands     1 Drenthe     7      Hoogeveen
    ## 8         8   158   NLD Netherlands     1 Drenthe     8         Meppel
    ## 9         9   158   NLD Netherlands     1 Drenthe     9 Midden-Drenthe
    ## 10       10   158   NLD Netherlands     1 Drenthe    10    Noordenveld
    ## # ... with 481 more rows, and 7 more variables: HASC_2 <chr>, CCN_2 <int>,
    ## #   CCA_2 <chr>, TYPE_2 <chr>, ENGTYPE_2 <chr>, NL_NAME_2 <chr>,
    ## #   VARNAME_2 <chr>
…
