…
load the tidyverse package

locate the epub file you want to read in and point to it

library(pubcrawl)
suppressPackageStartupMessages(library(tidyverse))  

In my case I cannot share the real file with you, because it is copyrighted, but it is the Hitchhikers guide to the galaxy, the first of the series and a lovely book.

Exploration

HH1 <- epub_to_text(epublocation)
HH1

## # A tibble: 73 x 4
##    path            size date                content                        
##    <chr>          <dbl> <dttm>              <chr>                          
##  1 OEBPS/part1.x…  4826 2010-06-03 17:20:56 "HH1 - Hitchhiker's Guide to t…
##  2 OEBPS/part10_…   678 2010-06-03 17:20:56 HH1 - Hitchhiker's Guide to th…
##  3 OEBPS/part10_… 11867 2010-06-03 17:20:56 "CHAPTER 9\n      A computer c…
##  4 OEBPS/part11_…   678 2010-06-03 17:20:56 HH1 - Hitchhiker's Guide to th…
##  5 OEBPS/part11_…  3281 2010-06-03 17:20:56 "CHAPTER 10\n      The Infinit…
##  6 OEBPS/part12_…   678 2010-06-03 17:20:56 HH1 - Hitchhiker's Guide to th…
##  7 OEBPS/part12_… 16537 2010-06-03 17:20:56 "CHAPTER 11\n      The Improba…
##  8 OEBPS/part13_…   678 2010-06-03 17:20:56 HH1 - Hitchhiker's Guide to th…
##  9 OEBPS/part13_… 11399 2010-06-03 17:20:56 "CHAPTER 12\n      A loud clat…
## 10 OEBPS/part14_…   678 2010-06-03 17:20:56 HH1 - Hitchhiker's Guide to th…
## # … with 63 more rows
…
